<?xml version="1.0" standalone="no"?>
<!DOCTYPE svg PUBLIC "-//W3C//DTD SVG 20010904//EN"
 "http://www.w3.org/TR/2001/REC-SVG-20010904/DTD/svg10.dtd">
<svg version="1.0" xmlns="http://www.w3.org/2000/svg"
 width="4096.000000pt" height="2563.000000pt" viewBox="0 0 4096.000000 2563.000000"
 preserveAspectRatio="xMidYMid meet">
<g transform="translate(0.000000,2563.000000) scale(0.100000,-0.100000)"
fill="white" stroke="none">
<path d="M15833 22340 c-73 -13 -227 -66 -294 -102 -179 -94 -345 -264 -434
-443 -277 -556 -22 -1213 552 -1424 122 -45 216 -61 358 -61 293 0 547 107
740 312 144 151 237 340 271 546 45 274 -37 586 -209 798 -80 98 -111 127
-212 199 -90 65 -167 103 -270 135 -38 12 -83 26 -100 32 -40 14 -336 19 -402
8z m362 -405 c115 -39 179 -79 261 -160 95 -95 154 -202 179 -327 19 -97 19
-140 -1 -236 -31 -152 -111 -284 -227 -376 -118 -93 -243 -136 -392 -136 -305
0 -558 209 -619 512 -20 96 -20 139 -1 236 41 202 191 388 376 463 30 12 77
28 104 35 69 18 254 12 320 -11z"/>
<path d="M18028 22330 c-79 -42 -107 -112 -108 -267 l0 -93 -112 0 c-88 0
-122 -5 -153 -19 -141 -64 -151 -259 -18 -342 33 -21 53 -24 161 -28 l122 -3
0 -248 0 -248 -123 -4 c-116 -3 -126 -5 -166 -31 -45 -30 -91 -109 -91 -157 0
-75 54 -160 117 -186 21 -9 73 -14 148 -14 l115 0 0 -90 c0 -118 14 -178 52
-225 38 -46 81 -65 148 -65 67 0 110 19 148 65 38 47 52 107 52 225 l0 90 250
0 250 0 0 -120 c0 -99 3 -127 19 -158 38 -74 87 -102 180 -102 76 0 132 35
166 104 22 44 25 63 25 163 l0 113 117 0 c97 0 124 3 159 20 107 52 136 206
56 302 -45 53 -92 68 -219 68 l-113 0 0 249 0 249 123 3 c100 3 128 8 156 24
106 62 134 205 59 291 -54 62 -92 74 -223 74 l-115 0 0 103 c0 113 -8 154 -42
204 -52 77 -176 97 -262 43 -70 -45 -86 -86 -86 -232 l0 -118 -250 0 -250 0 0
93 c-1 157 -29 226 -110 267 -51 26 -132 26 -182 0z m792 -1000 l0 -250 -250
0 -250 0 0 250 0 250 250 0 250 0 0 -250z"/>
<path d="M20585 22334 c-87 -48 -105 -90 -105 -244 l0 -120 -115 0 c-82 0
-127 -5 -153 -16 -142 -59 -160 -257 -29 -341 39 -26 51 -28 170 -31 l127 -4
0 -249 0 -249 -114 0 c-122 0 -161 -10 -208 -53 -78 -72 -85 -188 -15 -272 45
-55 78 -65 217 -65 l120 0 0 -120 c0 -139 14 -179 76 -227 29 -21 50 -28 100
-31 78 -5 112 8 158 58 45 50 56 93 56 218 l0 102 250 0 250 0 0 -115 c0 -155
20 -204 102 -246 95 -48 220 -9 266 83 19 39 22 61 22 162 l0 116 117 0 c139
0 184 16 229 82 25 36 29 50 29 114 0 65 -3 76 -31 111 -52 66 -100 83 -231
83 l-113 0 0 249 0 249 123 4 c105 3 128 6 162 26 104 60 128 205 47 294 -53
59 -83 68 -216 68 l-114 0 -4 128 c-3 120 -5 129 -32 169 -80 119 -273 108
-335 -19 -18 -37 -21 -63 -21 -161 l0 -117 -249 0 -249 0 -4 123 c-4 139 -15
167 -81 221 -33 26 -48 31 -105 33 -48 2 -76 -1 -97 -13z m785 -1004 l0 -250
-250 0 -250 0 0 250 0 250 250 0 250 0 0 -250z"/>
<path d="M24420 22339 c-32 -13 -77 -56 -98 -94 -15 -27 -17 -111 -20 -893 -2
-595 1 -875 8 -903 13 -47 68 -111 110 -129 18 -7 56 -11 95 -8 53 3 71 9 101
34 20 16 45 45 56 64 17 34 18 72 16 931 l-3 896 -28 36 c-39 51 -94 77 -159
76 -29 0 -64 -5 -78 -10z"/>
<path d="M25305 22334 c-45 -24 -65 -45 -86 -86 -18 -36 -19 -73 -19 -918 0
-860 0 -882 20 -920 32 -63 81 -93 156 -98 38 -3 77 1 94 8 42 18 97 82 110
129 7 28 10 308 8 903 -3 842 -3 864 -23 897 -11 19 -37 48 -58 65 -33 26 -48
31 -105 33 -48 2 -76 -1 -97 -13z"/>
<path d="M22968 21710 c-117 -20 -227 -101 -278 -204 -119 -240 22 -514 288
-559 163 -28 351 80 412 238 32 84 32 206 0 289 -61 159 -250 265 -422 236z"/>
<path d="M15490 19405 c-89 -41 -120 -109 -120 -267 l0 -98 -107 0 c-93 0
-115 -4 -160 -24 -150 -70 -147 -286 4 -352 22 -9 71 -14 148 -14 l115 0 0
-255 0 -255 -117 0 c-140 0 -184 -16 -229 -83 -24 -35 -28 -52 -29 -109 0 -58
4 -72 30 -110 46 -64 88 -81 226 -86 l117 -4 4 -117 c5 -138 23 -185 91 -228
83 -53 209 -30 264 50 27 38 28 47 31 169 l4 128 253 0 253 0 4 -128 c3 -122
4 -131 31 -169 55 -80 184 -104 266 -50 66 44 84 91 89 228 l4 117 117 4 c129
6 174 20 214 67 79 95 50 249 -57 301 -35 17 -62 20 -159 20 l-117 0 0 255 0
255 115 0 c146 0 188 17 240 95 14 22 20 47 20 96 0 86 -33 139 -108 175 -45
20 -67 24 -159 24 l-108 0 0 98 c0 59 -6 119 -15 149 -45 153 -253 180 -346
45 -22 -32 -24 -48 -27 -164 l-4 -128 -253 0 -253 0 -4 128 c-3 116 -5 132
-27 164 -13 19 -39 45 -57 57 -43 30 -135 38 -184 16z m780 -1010 l0 -255
-255 0 -255 0 0 255 0 255 255 0 255 0 0 -255z"/>
<path d="M18445 19414 c-113 -17 -201 -41 -279 -77 -311 -139 -517 -385 -598
-714 -33 -133 -31 -342 5 -478 76 -289 264 -525 526 -658 112 -58 183 -81 310
-102 307 -51 647 55 867 272 414 407 420 1056 14 1463 -42 41 -108 97 -149
124 -96 64 -248 130 -347 151 -77 16 -290 28 -349 19z m243 -399 c307 -61 528
-346 509 -655 -17 -263 -195 -489 -450 -573 -94 -30 -268 -30 -362 2 -213 71
-367 230 -430 446 -29 97 -24 249 10 354 49 144 129 250 254 332 145 95 303
127 469 94z"/>
<path d="M20609 19410 c-44 -13 -88 -51 -109 -95 -16 -34 -20 -62 -20 -157 l0
-116 -122 -4 c-109 -3 -128 -6 -166 -28 -113 -64 -131 -222 -35 -312 43 -41
74 -48 204 -48 l119 0 0 -254 0 -254 -134 -4 c-133 -3 -135 -3 -173 -34 -57
-46 -78 -89 -77 -155 1 -74 36 -135 96 -169 37 -21 59 -25 165 -28 l121 -4 4
-128 c3 -120 4 -129 31 -167 72 -104 246 -106 314 -4 33 49 43 95 43 204 l0
97 249 0 249 0 3 -128 c4 -124 5 -130 33 -166 72 -95 200 -112 287 -39 54 46
69 93 69 219 l0 112 118 4 c135 5 177 20 226 81 25 31 31 49 34 101 5 82 -20
135 -85 177 -45 28 -51 29 -170 29 l-123 0 0 254 0 254 128 4 c122 3 131 5
171 31 87 57 109 194 45 274 -50 63 -91 78 -226 81 l-118 4 0 109 c0 152 -26
209 -115 250 -80 37 -166 18 -224 -48 -46 -51 -51 -73 -51 -209 l0 -104 -250
0 -250 0 0 98 c0 160 -32 229 -122 266 -40 17 -96 19 -139 6z m761 -1015 l0
-255 -250 0 -250 0 0 255 0 255 250 0 250 0 0 -255z"/>
<path d="M24029 19013 c-84 -43 -119 -112 -105 -207 8 -52 63 -122 113 -142
49 -21 1769 -21 1816 0 47 21 83 59 102 110 37 97 -4 198 -98 242 l-52 24
-861 0 -860 0 -55 -27z"/>
<path d="M22905 18759 c-266 -91 -345 -434 -146 -636 113 -114 287 -144 435
-75 236 110 295 408 121 610 -94 108 -265 150 -410 101z"/>
<path d="M24023 18119 c-103 -51 -135 -200 -61 -294 11 -14 39 -36 61 -48 l42
-22 880 0 880 0 42 23 c135 72 134 276 -2 342 -40 20 -62 20 -921 20 -867 0
-880 0 -921 -21z"/>
<path d="M15506 16476 c-21 -8 -52 -27 -68 -43 -53 -50 -61 -78 -66 -210 l-4
-123 -115 0 c-132 0 -162 -9 -215 -68 -61 -67 -64 -163 -8 -240 47 -65 77 -76
218 -80 l122 -4 0 -249 0 -249 -110 0 c-77 0 -122 -5 -148 -15 -158 -67 -162
-284 -7 -356 31 -15 65 -19 153 -19 l112 0 0 -96 c0 -52 5 -115 11 -138 13
-54 62 -114 105 -132 44 -18 116 -18 161 1 90 38 112 88 113 248 l0 117 255 0
255 0 0 -117 c1 -160 23 -210 113 -248 76 -31 167 -14 219 41 43 46 58 103 58
220 l0 104 113 0 c87 0 121 4 152 19 155 72 151 289 -7 356 -26 10 -71 15
-148 15 l-110 0 0 250 0 250 103 0 c56 0 119 5 139 10 138 39 184 222 81 322
-53 51 -78 58 -207 58 l-114 0 -4 123 c-5 136 -14 164 -72 215 -33 29 -89 52
-127 52 -30 0 -103 -30 -127 -53 -51 -47 -62 -87 -62 -217 l0 -120 -254 0
-254 0 -4 134 c-3 133 -3 135 -34 173 -54 68 -144 96 -218 69z m764 -1016 l0
-250 -255 0 -255 0 0 250 0 250 255 0 255 0 0 -250z"/>
<path d="M18055 16475 c-22 -8 -56 -32 -77 -55 -44 -49 -58 -104 -58 -230 l0
-90 -114 0 c-63 0 -127 -5 -143 -11 -64 -24 -122 -109 -123 -179 0 -56 41
-131 90 -165 41 -29 49 -30 167 -34 l123 -3 0 -249 0 -249 -112 0 c-88 0 -122
-5 -153 -19 -148 -67 -149 -279 -3 -350 37 -18 62 -21 155 -21 l111 0 4 -117
c5 -123 16 -161 62 -211 45 -51 141 -67 213 -37 89 37 115 91 121 248 l4 117
249 0 249 0 0 -117 c0 -98 3 -124 21 -161 28 -58 84 -94 153 -100 71 -6 117
11 160 58 45 50 56 92 56 218 l0 102 113 0 c131 0 179 17 231 83 28 35 31 45
31 112 0 67 -3 77 -31 112 -52 66 -100 83 -231 83 l-113 0 0 250 0 250 103 0
c121 0 166 11 212 51 94 83 83 237 -23 310 -32 22 -48 24 -164 27 l-128 4 0
109 c0 153 -31 216 -125 260 -65 30 -139 20 -196 -28 -54 -46 -69 -92 -69
-225 l0 -118 -250 0 -250 0 0 90 c0 132 -14 183 -64 235 -59 61 -123 77 -201
50z m765 -1015 l0 -250 -250 0 -250 0 0 250 0 250 250 0 250 0 0 -250z"/>
<path d="M21000 16479 c-176 -20 -356 -93 -501 -203 -431 -325 -532 -929 -232
-1384 100 -152 236 -269 408 -353 162 -79 227 -93 445 -93 173 0 191 2 273 27
172 53 302 126 421 238 152 141 241 295 303 519 13 50 17 103 18 230 0 141 -4
177 -23 250 -52 189 -136 336 -270 473 -168 172 -375 270 -624 297 -107 11
-111 11 -218 -1z m255 -401 c116 -25 263 -112 338 -200 185 -219 207 -517 55
-761 -36 -57 -139 -158 -200 -194 -242 -147 -563 -113 -762 80 -136 132 -197
275 -197 460 1 404 370 700 766 615z"/>
<path d="M24435 16476 c-52 -20 -111 -83 -125 -134 -7 -29 -10 -302 -8 -904 3
-950 -1 -888 65 -950 36 -35 73 -48 131 -48 89 1 160 51 182 129 8 24 10 324
8 918 l-3 881 -31 39 c-58 71 -141 97 -219 69z"/>
<path d="M25327 16476 c-48 -18 -83 -50 -108 -98 -18 -36 -19 -72 -19 -915 0
-833 1 -880 19 -919 33 -73 103 -110 197 -102 64 5 116 42 148 104 21 39 21
49 21 909 0 479 -3 882 -8 897 -9 34 -61 94 -96 113 -42 21 -112 26 -154 11z"/>
<path d="M22952 15839 c-91 -18 -198 -92 -249 -172 -100 -159 -61 -389 85
-505 226 -180 555 -63 619 219 61 272 -179 513 -455 458z"/>
<path d="M19277 11783 c-12 -19 -1197 -3187 -1193 -3190 2 -2 270 174 596 392
327 217 597 395 602 395 4 0 275 -178 600 -395 326 -217 594 -391 596 -387 2
7 -1185 3182 -1193 3190 -2 2 -5 0 -8 -5z"/>
<path d="M21526 9821 c-70 -23 -126 -74 -155 -140 -35 -83 -43 -186 -39 -536
3 -292 6 -336 23 -379 25 -67 88 -129 156 -152 62 -21 201 -24 264 -6 134 38
205 179 205 406 -1 174 -42 286 -119 326 -80 40 -200 36 -249 -10 l-22 -21 0
109 c0 60 3 124 6 141 8 39 44 66 78 57 29 -7 35 -21 43 -98 l6 -58 118 0 119
0 0 95 c0 144 -33 204 -140 252 -77 35 -211 41 -294 14z m164 -700 c5 -11 10
-72 10 -136 0 -131 -8 -155 -49 -155 -49 0 -56 20 -56 155 0 89 4 126 14 138
19 23 68 22 81 -2z"/>
<path d="M22367 9825 c-82 -23 -136 -70 -176 -155 l-26 -55 0 -395 c0 -446 1
-454 77 -537 57 -61 128 -86 243 -86 137 1 217 38 275 129 47 75 52 126 48
519 -3 348 -4 362 -26 417 -31 77 -100 139 -180 162 -69 19 -168 20 -235 1z
m149 -229 c18 -14 19 -31 22 -366 2 -306 1 -356 -13 -376 -20 -31 -59 -31 -79
-2 -14 19 -16 72 -16 370 0 335 1 349 20 368 24 24 39 25 66 6z"/>
<path d="M20673 9816 c-66 -21 -111 -54 -140 -103 -30 -53 -53 -138 -53 -205
l0 -48 129 0 129 0 7 50 c9 64 33 95 67 87 48 -12 64 -105 28 -164 -14 -24
-31 -35 -65 -44 l-45 -11 0 -109 c0 -101 1 -109 20 -109 68 0 102 -51 108
-165 5 -108 -11 -159 -53 -163 -16 -1 -36 2 -44 7 -17 11 -30 79 -31 164 l0
67 -126 0 -126 0 4 -137 c3 -117 7 -146 26 -188 30 -65 63 -98 126 -127 43
-19 68 -23 156 -23 89 0 113 4 157 24 115 51 163 147 171 336 6 166 -7 227
-63 283 -23 23 -37 42 -29 42 7 0 26 16 42 36 57 69 67 247 20 357 -26 61 -92
119 -159 140 -62 20 -195 22 -256 3z"/>
<path d="M11224 5646 c-18 -8 -34 -24 -37 -37 -4 -13 -7 -531 -7 -1150 0
-1124 0 -1126 21 -1153 l20 -26 249 0 249 0 20 26 c21 27 21 29 21 1161 0 721
-4 1141 -10 1153 -18 33 -66 40 -284 40 -155 -1 -219 -4 -242 -14z"/>
<path d="M27673 5653 c-56 -11 -53 49 -53 -1190 0 -1130 0 -1143 20 -1163 19
-19 33 -20 269 -20 l250 0 20 26 c21 27 21 29 21 1155 0 834 -3 1135 -12 1153
-7 17 -24 30 -47 36 -34 9 -422 12 -468 3z"/>
<path d="M13285 5454 c-365 -40 -552 -162 -601 -393 -20 -96 -20 -1096 0
-1192 36 -170 140 -274 336 -338 220 -71 640 -78 887 -16 227 58 340 155 390
336 16 58 18 119 18 614 0 490 -2 557 -17 612 -55 198 -179 296 -448 354 -75
16 -141 21 -310 24 -118 1 -233 1 -255 -1z m288 -524 c76 -11 108 -28 125 -66
17 -37 16 -770 -1 -803 -25 -50 -70 -65 -192 -66 -123 0 -174 13 -205 52 -19
25 -20 40 -20 417 0 338 2 395 16 414 21 31 50 44 114 52 80 11 88 11 163 0z"/>
<path d="M3307 5400 l-27 -21 0 -909 c0 -879 1 -909 19 -931 l19 -24 479 -3
c289 -2 522 1 590 8 296 28 448 136 511 363 15 55 17 120 17 582 0 559 -1 573
-53 685 -35 76 -125 164 -204 199 -139 63 -149 64 -763 68 -561 4 -561 4 -588
-17z m943 -508 c60 -30 60 -29 58 -439 l-3 -373 -28 -27 -27 -28 -185 -3 -185
-3 0 445 0 446 168 0 c139 0 173 -3 202 -18z"/>
<path d="M5595 5402 c-16 -11 -35 -25 -41 -33 -20 -24 -295 -758 -322 -858
l-26 -96 -1 -427 0 -427 23 -23 c22 -22 29 -23 245 -26 244 -4 287 2 305 43 8
17 12 95 12 225 l0 200 230 0 230 0 0 -210 c0 -194 1 -211 19 -229 28 -28 80
-33 324 -29 216 3 219 3 238 27 18 22 19 45 19 433 0 450 -2 471 -64 654 -49
146 -267 715 -285 743 -31 49 -51 51 -478 51 -368 0 -400 -1 -428 -18z m485
-517 c7 -8 40 -105 75 -215 l62 -200 -199 0 c-157 0 -199 3 -195 13 2 7 30 95
62 197 31 102 64 193 72 203 21 22 105 24 123 2z"/>
<path d="M6992 5408 c-36 -18 -44 -67 -40 -270 4 -252 -19 -232 268 -236 l220
-3 0 -669 c0 -643 1 -669 19 -691 l19 -24 272 0 272 0 19 24 c18 22 19 48 19
691 l0 669 221 3 c218 3 221 3 240 27 17 21 19 41 19 236 l0 214 -26 20 c-26
21 -33 21 -763 20 -509 0 -743 -4 -759 -11z"/>
<path d="M9043 5405 c-17 -7 -38 -24 -46 -37 -21 -32 -270 -687 -309 -812
l-32 -101 -4 -446 c-3 -431 -2 -446 17 -470 l19 -24 252 0 252 0 19 24 c17 21
19 41 19 232 l0 209 230 0 230 0 0 -204 c0 -202 0 -205 24 -233 l24 -28 256 0
c253 0 256 0 278 23 l23 23 0 412 c0 444 0 448 -57 626 -30 94 -270 727 -289
763 -6 11 -25 28 -42 38 -30 19 -53 20 -432 20 -318 -1 -407 -4 -432 -15z
m479 -522 c9 -10 42 -101 73 -203 32 -102 60 -191 62 -197 4 -10 -39 -13 -195
-13 l-200 0 63 200 c34 110 68 206 75 215 18 22 102 20 122 -2z"/>
<path d="M14682 5410 c-12 -5 -27 -21 -32 -35 -14 -38 -13 -1772 1 -1813 8
-24 20 -34 47 -42 48 -13 446 -13 494 0 54 15 58 38 58 300 l0 228 263 5 c281
5 327 12 431 64 97 48 177 158 211 288 21 84 22 575 0 658 -46 177 -158 286
-340 332 -62 16 -131 19 -590 21 -312 2 -529 0 -543 -6z m847 -501 c50 -18 61
-51 61 -189 0 -67 -5 -130 -10 -141 -22 -39 -61 -49 -205 -49 l-135 0 0 195 0
195 129 0 c70 0 142 -5 160 -11z"/>
<path d="M16359 5401 c-24 -19 -24 -23 -27 -223 -2 -121 1 -215 7 -230 15 -40
61 -48 278 -48 l192 0 3 -670 3 -669 23 -23 c22 -22 28 -23 265 -26 265 -4
306 2 325 43 9 19 12 205 12 685 l0 659 221 3 c218 3 221 3 240 27 17 21 19
41 19 233 0 208 0 209 -25 233 l-24 25 -744 0 c-718 0 -746 -1 -768 -19z"/>
<path d="M18155 5396 l-25 -25 0 -209 c0 -275 -14 -256 194 -260 l156 -4 0
-439 0 -439 -155 0 c-210 0 -195 20 -195 -249 0 -191 2 -211 19 -232 l19 -24
591 -3 c386 -2 605 1 630 8 58 15 63 35 59 263 -4 254 10 237 -195 237 l-153
0 0 440 0 440 128 0 c154 0 195 10 211 49 8 19 11 91 9 229 -3 177 -5 203 -21
219 -17 17 -58 18 -633 21 l-614 2 -25 -24z"/>
<path d="M19802 5408 c-12 -6 -27 -27 -33 -47 -7 -24 -9 -326 -7 -918 l3 -882
23 -23 c22 -23 26 -23 272 -23 246 0 250 0 272 23 l23 23 5 470 5 470 81 -148
c94 -172 107 -184 219 -191 106 -7 156 3 192 38 16 16 63 91 104 167 l74 138
5 -472 5 -472 23 -23 c22 -23 26 -23 277 -23 251 0 255 0 277 23 l23 23 3 882
c2 596 0 894 -8 918 -16 58 -32 60 -322 57 l-256 -3 -27 -25 c-14 -13 -56 -79
-92 -145 -210 -384 -204 -375 -233 -375 -15 0 -34 8 -42 18 -8 9 -70 118 -138
241 -68 123 -135 238 -151 255 l-27 31 -264 2 c-177 1 -270 -2 -286 -9z"/>
<path d="M21989 5401 c-24 -19 -24 -23 -27 -213 -2 -106 0 -208 3 -226 10 -51
46 -62 215 -62 l140 0 0 -440 0 -440 -159 0 -160 0 -20 -26 c-20 -25 -21 -40
-21 -220 0 -219 5 -239 59 -255 24 -7 237 -9 629 -7 l594 3 19 24 c17 21 19
41 19 232 0 269 15 249 -195 249 l-155 0 0 439 0 439 156 4 c208 4 194 -15
194 260 0 208 0 209 -25 233 l-24 25 -609 0 c-585 0 -611 -1 -633 -19z"/>
<path d="M23959 5409 c-170 -25 -307 -116 -365 -244 -39 -85 -46 -151 -42
-400 4 -206 6 -236 25 -283 30 -74 66 -118 135 -162 89 -58 153 -75 419 -111
214 -29 247 -36 267 -56 29 -29 30 -85 2 -113 -19 -19 -33 -20 -410 -20 l-391
0 -24 -25 c-25 -24 -25 -25 -25 -219 0 -107 4 -206 10 -220 17 -46 47 -48 570
-43 532 4 549 6 671 67 112 57 183 145 215 264 19 71 19 490 0 561 -29 111
-94 189 -196 237 -84 40 -116 47 -379 82 -221 30 -246 35 -263 56 -18 22 -24
76 -10 96 20 31 54 34 385 34 315 0 336 1 358 19 23 19 24 24 27 208 4 211 -4
258 -44 273 -31 12 -855 11 -935 -1z"/>
<path d="M25339 5401 l-24 -19 -3 -899 c-2 -653 1 -905 9 -925 8 -20 23 -31
50 -38 25 -7 260 -10 680 -8 l641 3 19 24 c17 21 19 41 19 228 0 203 0 204
-25 228 l-24 25 -386 0 -385 0 0 110 0 110 279 0 c260 0 280 1 302 19 24 19
24 21 24 221 0 200 0 202 -24 221 -22 18 -42 19 -302 19 l-279 0 0 95 0 94
391 3 391 3 19 24 c17 21 19 41 19 228 0 203 0 204 -25 228 l-24 25 -659 0
c-635 0 -661 -1 -683 -19z"/>
<path d="M29499 5409 c-166 -24 -299 -111 -363 -236 -41 -81 -48 -148 -44
-403 4 -267 13 -308 87 -392 83 -94 176 -126 492 -169 214 -29 247 -36 267
-56 29 -29 30 -85 2 -113 -19 -19 -33 -20 -410 -20 l-391 0 -24 -25 c-25 -24
-25 -25 -25 -230 0 -190 1 -206 19 -224 11 -11 35 -23 54 -26 18 -4 249 -5
513 -2 524 4 544 6 662 66 116 59 185 143 217 266 18 72 21 464 4 547 -15 70
-49 136 -91 174 -100 93 -165 115 -474 156 -218 29 -252 35 -271 55 -27 26
-31 79 -9 109 14 18 33 19 370 24 324 5 357 7 373 23 16 15 18 41 21 205 4
208 -3 252 -43 270 -30 14 -844 15 -936 1z"/>
<path d="M31301 5409 c-83 -11 -193 -44 -254 -77 -56 -30 -136 -112 -165 -168
-57 -111 -57 -115 -57 -694 0 -492 2 -540 19 -603 38 -137 129 -237 269 -296
124 -51 253 -62 686 -59 370 3 370 3 393 26 22 22 23 27 23 231 0 188 -2 211
-18 229 -18 19 -33 20 -345 24 -292 3 -331 5 -360 21 -61 33 -63 48 -60 438
l3 349 33 32 32 33 335 5 c331 5 335 5 357 28 22 22 23 30 26 210 4 208 -3
252 -43 270 -30 14 -769 15 -874 1z"/>
<path d="M32863 5405 c-17 -7 -38 -24 -46 -37 -20 -31 -278 -710 -314 -824
l-27 -89 -4 -446 c-3 -431 -2 -446 17 -470 l19 -24 252 0 252 0 19 24 c17 21
19 41 19 232 l0 209 230 0 230 0 0 -204 c0 -202 0 -205 24 -233 l24 -28 256 0
c253 0 256 0 278 23 l23 23 0 412 c0 444 0 448 -57 626 -30 96 -269 725 -289
762 -5 11 -25 29 -42 39 -30 19 -53 20 -432 20 -318 -1 -407 -4 -432 -15z
m479 -522 c9 -10 42 -101 73 -203 32 -102 60 -191 62 -197 4 -10 -39 -13 -195
-13 l-200 0 63 200 c34 110 68 206 75 215 18 22 102 20 122 -2z"/>
<path d="M34459 5401 l-24 -19 -3 -899 c-2 -641 1 -906 9 -925 6 -15 24 -31
41 -37 44 -15 1393 -15 1437 0 17 6 36 19 41 29 6 12 10 198 10 480 l0 461
-25 24 -24 25 -241 0 -241 0 -24 -25 -25 -24 0 -236 0 -235 -175 0 -175 0 0
659 c0 434 -4 668 -10 688 -6 17 -22 35 -36 42 -16 7 -108 11 -268 11 -225 0
-246 -1 -267 -19z"/>
<path d="M36302 5408 c-12 -6 -27 -27 -33 -47 -7 -24 -9 -327 -7 -918 l3 -882
23 -23 23 -23 665 0 666 0 19 24 c17 21 19 41 19 231 l0 209 -26 20 c-26 20
-37 21 -410 21 l-384 0 0 110 0 110 280 0 281 0 24 25 c25 24 25 26 25 215 0
189 0 191 -25 215 l-24 25 -281 0 -280 0 0 95 0 94 391 3 391 3 19 24 c17 21
19 41 19 231 l0 209 -26 20 c-26 21 -34 21 -678 20 -447 0 -658 -4 -674 -11z"/>
</g>
</svg>
